module pinger

go 1.15

require (
	github.com/alecthomas/units v0.0.0-20201120081800-1786d5ef83d4 // indirect
	github.com/clambin/gotools v0.2.1
	github.com/mpvl/unique v0.0.0-20150818121801-cbe035fff7de
	github.com/prometheus/client_golang v1.10.0
	github.com/sirupsen/logrus v1.8.1
	github.com/stretchr/testify v1.7.0
	gopkg.in/alecthomas/kingpin.v2 v2.2.6
)
